stl_lead_inequity
…
names(stl_lead)

 [1] "geo_id"          "tract_ce"        "name_lsad"       "count_tested"   
 [5] "pct_elevated"    "total_pop"       "total_pop_moe"   "white"          
 [9] "white_moe"       "black"           "black_moe"       "poverty_tot"    
[13] "poverty_tot_moe" "poverty_u18"     "poverty_u18_moe"

#create a new data frame
stl_lead_prop <- stl_lead |> 
  mutate(prop_white = (white/total_pop)*100)

stl_lead_prop

# A tibble: 106 × 16
     geo_id tract_ce name_lsad count_tested pct_elevated total_pop total_pop_moe
      <dbl>    <dbl> <chr>            <dbl>        <dbl>     <dbl>         <dbl>
 1  2.95e10   118100 Census T…          345         9.57      1161           192
 2  2.95e10   117400 Census T…          871        12.1       4307           447
 3  2.95e10   126700 Census T…          458        18.1       1089           199
 4  2.95e10   119102 Census T…          182         2.2       3237           309
 5  2.95e10   126800 Census T…          486         4.73      3490           231
 6  2.95e10   126900 Census T…         1296        15.7       4590           826
 7  2.95e10   108100 Census T…          903        11.4       3144           464
 8  2.95e10   127000 Census T…          585        10.9       2052           273
 9  2.95e10   127400 Census T…         2116         3.12      5486           516
10  2.95e10   103700 Census T…          417         3.36      2408           274
# ℹ 96 more rows
# ℹ 9 more variables: white <dbl>, white_moe <dbl>, black <dbl>,
#   black_moe <dbl>, poverty_tot <dbl>, poverty_tot_moe <dbl>,
#   poverty_u18 <dbl>, poverty_u18_moe <dbl>, prop_white <dbl>
…
